%YAML 1.1
%TAG !u! tag:unity3d.com,2011:
--- !u!114 &11400000
MonoBehaviour:
  m_ObjectHideFlags: 0
  m_CorrespondingSourceObject: {fileID: 0}
  m_PrefabInstance: {fileID: 0}
  m_PrefabAsset: {fileID: 0}
  m_GameObject: {fileID: 0}
  m_Enabled: 1
  m_EditorHideFlags: 0
  m_Script: {fileID: 11500000, guid: b953bf17ea97af54db59e61b95e16ed7, type: 3}
  m_Name: E79D3CFE-F48A-45F8-8CDF-F5C87D4658A0
  m_EditorClassIdentifier: 
  objectName: Main
  id: 3161908922
  guid: E79D3CFE-F48A-45F8-8CDF-F5C87D4658A0
